^C:\USERS\DANIF\SOURCE\REPOS\TASK2\TASK2.CPP
C:\USERS\DANIF\SOURCE\REPOS\TASK2\X64\DEBUG\VC143.PDB
C:\USERS\DANIF\SOURCE\REPOS\TASK2\X64\DEBUG\VC143.IDB
C:\USERS\DANIF\SOURCE\REPOS\TASK2\X64\DEBUG\TASK2.OBJ
